{
                    "name": "appliance_size",
                    "values": [
                        {
                            "name": {
                                "value": "size",
                                "synonyms": [
                                    "large",
                                    "medium",
                                    "small"
                                ]
                            }
                        }
                    ]
                }